<svg width="48" height="48" viewBox="0 0 48 48" fill="none" xmlns="http://www.w3.org/2000/svg">
<g clip-path="url(#clip0_1397_1104)">
<path fill-rule="evenodd" clip-rule="evenodd" d="M9.52987 4.8892C13.4531 1.87982 18.3226 0.304272 23.2591 0.0458488C23.0791 4.49323 23.1461 9.02813 21.9151 13.3421C21.466 15.0403 20.6515 16.6209 19.528 17.9747C18.4045 19.3284 16.9989 20.4229 15.4084 21.1824C10.5683 23.2664 5.17118 23.108 0.00439453 23.3164C0.00439453 16.1473 3.77271 9.14484 9.52987 4.8892Z" fill="white"/>
<path fill-rule="evenodd" clip-rule="evenodd" d="M24.7244 5.72205e-06C29.0789 0.362632 33.4418 1.50053 37.0929 3.97222C40.344 6.07942 43.033 8.94041 44.9291 12.3097C46.8252 15.679 47.8718 19.4559 47.9791 23.3164C43.1975 23.1497 38.2778 23.2164 33.6972 21.6492C32.0372 21.0774 30.5259 20.1448 29.273 18.9192C28.02 17.6936 27.057 16.2057 26.4536 14.5634C24.7788 9.91594 24.804 4.8767 24.7202 5.72205e-06H24.7244Z" fill="white"/>
<path fill-rule="evenodd" clip-rule="evenodd" d="M34.5682 26.0966C38.9395 24.9003 43.5033 24.8461 48.0002 24.7586C47.8237 30.9029 45.2618 36.7399 40.8529 41.0434C36.5346 45.2927 30.7715 47.7738 24.7036 47.9958C24.8208 43.0316 24.7371 37.8882 26.5543 33.1782C27.8481 29.702 31.0051 27.1052 34.5515 26.0924L34.5682 26.0966Z" fill="white"/>
<path fill-rule="evenodd" clip-rule="evenodd" d="M0 24.7711C5.44313 24.9628 11.238 24.7128 16.1954 27.3053C19.5869 29.0309 21.5841 32.6238 22.2959 36.2334C23.1082 40.1056 23.1333 44.0695 23.2338 48.0042C20.0171 47.8795 16.8569 47.1234 13.9346 45.7793C11.0123 44.4353 8.38556 42.5298 6.20517 40.1723C2.41591 35.9875 0 30.4439 0 24.7711Z" fill="white"/>
</g>
<defs>
<clipPath id="clip0_1397_1104">
<rect width="48" height="48" fill="white"/>
</clipPath>
</defs>
</svg>
