<svg width="200" height="200" viewBox="0 0 200 200" fill="none" xmlns="http://www.w3.org/2000/svg">
<path fill-rule="evenodd" clip-rule="evenodd" d="M100 0C155.227 0 200 44.7713 200 99.996C200 155.221 155.227 200 100 200C44.773 200 0 155.229 0 99.996C0 44.7633 44.773 0 100 0Z" fill="#B1C8C0"/>
<path fill-rule="evenodd" clip-rule="evenodd" d="M184.071 154.18C184.071 145.626 183.014 134.37 180.279 130.848C176.956 126.579 131.761 112.922 123.049 107.795C113.668 136.31 81.4077 131.635 76.5663 108.733C66.3111 112.469 37.6125 121.842 21.4665 130.379C18.2628 132.073 16.6172 155.134 16.6172 155.134C34.52 182.154 65.1981 199.977 100.034 199.977C134.87 199.977 165.969 181.916 183.816 154.585L184.071 154.18Z" fill="#232B30"/>
<path fill-rule="evenodd" clip-rule="evenodd" d="M96.0801 122.192C99.1089 122.248 102.249 123.146 105.175 122.351C127.45 116.286 120.295 102.184 120.295 102.184C120.295 102.184 120.247 99.9259 120.239 98.7812C120.216 95.3709 120.311 91.8811 120.629 88.2323C116.066 96.7302 108.529 102.16 97.5826 101.929C89.9111 101.77 83.1617 95.3947 78.7734 86.9365C79.3538 91.3962 79.1391 96.5235 79.2504 100.753C79.2584 101.166 79.3617 110.984 79.3697 111.397C84.2111 120.571 90.3403 121.024 96.0801 122.192Z" fill="#FFCCA9"/>
<path fill-rule="evenodd" clip-rule="evenodd" d="M116.621 109.702C96.405 113.199 82.493 98.8744 78.8281 87.0615C83.2164 95.4561 89.9339 101.768 97.5657 101.927C108.512 102.158 116.049 96.728 120.612 88.2301C120.294 91.8789 120.199 95.3687 120.222 98.779C120.23 99.9158 120.334 101.506 120.366 102.634C119.396 105.305 118.06 107.364 116.621 109.702Z" fill="#F4A592"/>
<path fill-rule="evenodd" clip-rule="evenodd" d="M84.724 179.792C86.4809 170.483 96.4261 135.919 96.4261 135.919L91.6244 128.089L95.2256 123.049L103.35 123.224L107.444 127.986L102.754 136.062C105.155 149.147 110.004 166.334 112.604 179.752C118.503 159.084 122.708 153.511 123.829 126.38C123.829 126.356 126.198 112.325 126.198 112.301C123.233 108.454 120.339 101.832 120.339 101.832C120.339 101.824 109.837 117.874 103.915 122.357C100.886 122.302 97.8491 122.254 94.8202 122.198C88.0232 116.348 79.2625 102.452 79.2625 102.452L71.2969 113.828C71.2969 113.828 77.4738 150.014 84.7161 179.792H84.724Z" fill="white"/>
<path fill-rule="evenodd" clip-rule="evenodd" d="M107.446 127.986L103.351 123.225L95.2268 123.05L91.6255 128.09L96.4272 135.92C96.4272 135.92 86.482 170.484 84.7172 179.793C84.5343 180.771 84.4389 181.47 84.4548 181.828C84.9318 185.024 86.8239 191.63 89.6142 199.444C93.0406 199.794 96.5146 199.985 100.028 199.985C102.509 199.985 104.965 199.889 107.398 199.714C109.608 193.514 111.564 187.122 112.939 181.47C112.835 180.914 112.724 180.333 112.613 179.761C110.013 166.342 105.164 149.156 102.763 136.071L107.454 127.994L107.446 127.986Z" fill="#B3B3B3"/>
<path fill-rule="evenodd" clip-rule="evenodd" d="M97.5832 101.927C108.53 102.157 116.066 96.7277 120.63 88.2298C122.204 85.2965 123.42 81.9974 124.302 78.4361C124.255 76.568 124.875 73.6028 125.137 69.6122C125.336 66.5676 125.749 63.7853 126.401 61.6151C126.401 61.5992 126.401 61.5833 126.401 61.5674C126.314 61.6787 126.234 61.7979 126.139 61.9092C125.662 54.2141 123.046 40.8193 121.941 37.5283C119.461 35.4773 116.4 31.2641 90.3092 32.0431C87.2804 31.1687 78.9649 37.4726 78.8695 37.6316C77.9474 39.0943 76.6833 42.0117 75.9202 46.3362C73.3762 60.685 74.6562 56.6546 73.8135 61.9171C73.6704 61.8217 73.3206 61.4243 72.8516 60.9155C72.8834 61.2494 72.9152 61.5833 72.947 61.9251C73.4716 63.9999 73.8055 66.5517 73.9645 69.3181C74.0838 71.4883 74.3143 73.3484 74.4813 74.8986C75.3637 79.08 76.8423 83.2057 78.7662 86.934C83.1544 95.3922 89.9038 101.768 97.5753 101.927H97.5832Z" fill="#FFCCA9"/>
<path fill-rule="evenodd" clip-rule="evenodd" d="M72.5588 60.6152C72.6621 60.7185 72.7496 60.8219 72.845 60.9252C73.314 61.434 73.6638 61.8314 73.8069 61.9268C74.6495 56.6643 73.3617 60.7026 75.9136 46.3459C76.6847 42.0214 77.9407 39.104 78.8629 37.6413C80.6039 34.8908 121.219 42.5541 121.346 42.6574C122.451 45.9485 124.622 55.3447 126.132 61.9189C126.228 61.7997 126.315 61.6884 126.395 61.5771C126.395 61.5771 126.402 61.5612 126.41 61.5612C127.269 58.7073 128.533 56.9346 130.242 57.0459C130.409 57.0618 130.576 57.0936 130.735 57.1413C131.284 51.3223 131.085 45.0422 130.807 38.635C130.974 20.1446 110.312 12.8867 95.47 13.8089C69.4107 15.4385 64.5692 33.2532 68.5521 57.0697C70.929 57.0697 71.9466 58.7868 72.5588 60.6231V60.6152Z" fill="black"/>
<path fill-rule="evenodd" clip-rule="evenodd" d="M73.7273 52.0694C73.7273 52.0694 73.6565 52.0616 73.625 52.0537C73.6565 52.0695 73.688 52.0773 73.7273 52.0694Z" fill="white"/>
<path fill-rule="evenodd" clip-rule="evenodd" d="M75.1974 74.9083C75.0225 73.3581 74.7999 71.49 74.6807 69.3278C74.5296 66.5613 74.1957 64.0175 73.6711 61.9348C73.5518 61.4658 73.4246 61.0285 73.2895 60.6152C72.4627 58.127 71.2861 56.6007 69.7041 56.6881C69.3066 56.712 68.9409 56.8471 68.5991 57.0697C66.3732 58.5404 65.5226 64.0414 67.3033 69.2324C69.3544 75.2183 70.6024 80.6239 73.6234 80.457C75.7141 80.3457 75.6028 78.4378 75.2053 74.9003L75.1974 74.9083Z" fill="#FFCCA9"/>
<path fill-rule="evenodd" clip-rule="evenodd" d="M130.739 57.1335C130.58 57.0858 130.413 57.0461 130.246 57.0381C128.537 56.9268 127.273 58.7075 126.414 61.5534C126.414 61.5773 126.398 61.6011 126.398 61.617C125.754 63.7872 125.333 66.5695 125.134 69.6142C124.872 73.6127 124.252 76.5779 124.299 78.438C124.331 79.8848 124.769 80.6718 126.088 80.7593C129.101 80.958 130.405 75.5603 132.52 69.5983C134.515 63.9701 133.402 57.9523 130.739 57.1256V57.1335Z" fill="#FFCCA9"/>
<path fill-rule="evenodd" clip-rule="evenodd" d="M139.974 145.721L132.295 136.619L141.572 132.08C141.572 132.08 122.787 104.893 120.354 101.832C119.233 128.971 117.333 158.79 112.619 179.752C112.397 180.762 109.622 193.513 107.412 199.706C111.061 199.443 114.654 198.982 118.184 198.33C120.784 194.523 134.441 163.241 140.69 146.564L139.982 145.721H139.974ZM89.6284 199.435C86.5042 199.109 83.4197 198.64 80.3908 198.036C71.0181 179.228 60.27 156.405 57.1458 144.211L64.3085 135.72L65.493 134.313L63.6805 134.003L55.4922 132.604L79.2779 102.436C79.2779 102.436 78.2444 149.831 84.7314 179.776C84.9937 180.985 87.8636 191.247 89.6284 199.427V199.435Z" fill="#141B1E"/>
</svg>
